
{
	"url" : "//link[@rel='canonical']/@href",
	"title" : "//meta[@property='og:title']/@content",	
	"image" : "//meta[@property='og:image']/@content",
	"description" : "//meta[@property='og:description']/@content"
}
